{
  "kind": "collectionType",
  "collectionName": "posts",
  "info": {
    "name": "Post",
    "description": ""
  },
  "options": {
    "increments": true,
    "timestamps": true,
    "draftAndPublish": true
  },
  "pluginOptions": {},
  "attributes": {
    "title": {
      "type": "string",
      "required": true
    },
    "slug": {
      "type": "uid",
      "required": true
    },
    "content": {
      "type": "richtext",
      "required": true
    },
    "author": {
      "plugin": "users-permissions",
      "model": "user",
      "via": "posts"
    }
  }
}
